<?xml version="1.0" encoding="utf-8"?>
<!-- Generator: Adobe Illustrator 22.1.0, SVG Export Plug-In . SVG Version: 6.00 Build 0)  -->
<svg version="1.1" id="Слой_1" xmlns="http://www.w3.org/2000/svg" xmlns:xlink="http://www.w3.org/1999/xlink" x="0px" y="0px"
	 viewBox="0 0 805.4 46.4" style="enable-background:new 0 0 805.4 46.4;" xml:space="preserve">
<style type="text/css">
	.st0{fill:#333333;}
	.st1{fill:#9D9E9E;fill-opacity:0.8;}
</style>
<g id="Слой_x0020_1">
	<g id="_2590533907840">
		<polygon class="st0" points="805.4,41.8 805.4,41.9 0,41.9 9.4,25.6 22.6,2.8 24.2,0 26,0 778.5,0 781.3,0 782.3,1.8 794.8,23.5 
					"/>
		<path class="st1" d="M27.4,4.4l431,0.1v-2H25.6L27.4,4.4L27.4,4.4z M458.4,4.6l321.5,0.1V2.5H458.4V4.6z"/>
		<polygon class="st1" points="793.7,30.7 800.1,41.9 802.6,41.9 795.5,29.6 		"/>
		<polygon class="st1" points="5.3,41.9 12.5,29.5 10.4,28.7 2.8,41.9 		"/>
		<polygon class="st1" points="12.5,29.5 27.6,3.3 25.6,2.5 10.4,28.7 		"/>
		<polygon class="st1" points="778.6,4.7 793.7,30.7 795.5,29.6 779.9,2.5 		"/>
		<path class="st1" d="M27.4,4.4l431,0.2v-2L25.6,2.5L27.4,4.4L27.4,4.4z M458.4,4.6l321.5,0.1V2.5H458.4V4.6z"/>
	</g>
</g>
</svg>
