<?xml version="1.0" encoding="UTF-8"?>
<!DOCTYPE svg PUBLIC "-//W3C//DTD SVG 1.1//EN" "http://www.w3.org/Graphics/SVG/1.1/DTD/svg11.dtd">
<!-- Creator: CorelDRAW 2017 -->
<svg xmlns="http://www.w3.org/2000/svg" xml:space="preserve" width="104.917mm" height="99.5802mm" version="1.1" style="shape-rendering:geometricPrecision; text-rendering:geometricPrecision; image-rendering:optimizeQuality; fill-rule:evenodd; clip-rule:evenodd"
viewBox="0 0 106.23 100.83"
 xmlns:xlink="http://www.w3.org/1999/xlink">
 <defs>
  <style type="text/css">
   <![CDATA[
    .str1 {stroke:#FEFEFE;stroke-width:2.03;stroke-miterlimit:22.9256}
    .str3 {stroke:#FEFEFE;stroke-width:0.51;stroke-miterlimit:22.9256}
    .str0 {stroke:#FEFEFE;stroke-width:1.52;stroke-miterlimit:22.9256}
    .str2 {stroke:#FEFEFE;stroke-width:0.08;stroke-miterlimit:22.9256}
    .fil0 {fill:none}
    .fil1 {fill:black}
   ]]>
  </style>
 </defs>
 <g id="Слой_x0020_1">
  <metadata id="CorelCorpID_0Corel-Layer"/>
  <g id="_1391584665776">
   <polygon class="fil0 str0" points="102.27,0.85 76.77,22.28 74.41,21.1 71.41,19.49 67.23,18.85 66.16,20.14 66.37,21.21 68.52,21.74 70.88,23.57 70.66,25.39 69.48,26.78 67.02,27.32 65.84,26.89 61.55,31.17 62.52,32.46 63.8,33.21 66.59,33 68.95,33 71.95,34.71 73.66,32.67 75.38,30.85 77.09,30.85 78.27,32.57 78.48,34.92 78.81,36.53 80.73,36.32 81.38,34.28 81.38,31.82 80.63,29.57 79.77,26.89 79.23,25.49 88.13,17.99 93.7,13.71 98.52,9.21 102.38,6.42 104.95,4.6 105.38,1.81 "/>
   <polygon class="fil0 str0" points="45.16,32.19 40.5,28.44 38.51,28.5 35.99,26.83 35.19,25.23 35.89,23.99 38.24,22.49 40.33,21.53 39.42,20.14 36.37,20.46 34.01,21.37 30.21,23.67 14.13,11.14 5.13,2.78 3.2,2.24 1.38,2.88 0.85,5.67 4.6,7.92 7.38,9.96 11.13,13.06 15.74,17.03 22.49,22.82 26.03,25.71 27.31,26.46 26.89,28.17 25.92,30.75 25.39,33.53 25.39,37.28 26.99,36.96 27.31,34.71 28.17,32.57 29.81,31.6 31.49,31.82 32.67,33.42 33.53,35.14 34.17,36.75 36.53,38.68 37.92,37.07 39.42,35.14 41.35,33.85 43.82,32.89 "/>
   <polygon class="fil0 str1" points="32.35,50.25 31.06,46.71 31.92,44.35 34.49,42.85 36.21,42.32 37.07,40.5 38.89,40.07 39.85,38.46 42.32,36.1 44.67,35.03 47.14,34.6 48.96,33.32 51.21,32.46 54.64,33.21 56.57,32.89 58.39,33 60.1,33.21 62.46,34.5 64.18,35.03 67.93,35.03 69.75,35.67 71.25,37.07 72.43,38.78 72.86,40.07 75.21,40.39 76.82,41.35 77.68,42.75 78.32,44.25 78.64,45.64 78.54,47.78 76.82,49.18 76.93,50.36 78.43,51.11 79.82,52.93 80.14,54.64 80.14,56.57 79.71,58.07 78.21,59.25 77.57,60.32 77.68,61.5 78.96,63.11 79.5,64.93 79.5,67.18 78.75,68.79 77.68,69.75 78.32,71.68 78.43,73.93 78,75.97 77.25,77.9 75,79.07 73.39,79.07 71.79,77.36 72.21,73.61 68.36,70.93 67.07,69.32 66.74,68.33 66.43,67.39 66.21,64.82 64.07,63.21 62.03,61.07 61.5,59.46 61.28,58.18 58.71,57.54 57.1,56.46 55.28,54.53 53.68,53.68 51.53,54.64 49.6,54.53 46.92,54.53 44.67,53.68 42.85,51.96 40.49,52.07 36.85,52.07 34.28,51.43 "/>
   <polyline class="fil0 str1" points="43.01,53.62 34.01,52.55 27.8,50.2 25.01,48.59 23.4,47.84 21.26,47.95 20.62,51.05 20.83,52.23 18.47,54.05 16.65,56.3 15.79,58.77 15.69,61.02 16.01,63.91 16.97,67.56 18.79,70.66 20.72,72.7 22.87,74.41 25.44,76.66 28.12,78.49 28.97,79.99 27.15,81.38 26.72,82.99 27.05,85.02 28.33,86.31 31.12,86.31 32.94,84.27 33.58,81.91 33.26,79.24 32.3,77.09 30.37,75.16 28.01,72.59 25.76,70.45 24.15,67.98 23.19,66.16 22.87,63.8 22.97,60.8 23.72,58.45 25.65,56.84 28.33,56.41 31.55,57.16 33.69,58.23 35.3,59.3 34.98,61.02 34.23,62.95 34.23,66.59 35.83,69.16 36.69,73.66 35.94,79.99 35.73,85.45 44.3,85.88 54.8,85.88 67.12,85.88 72.37,85.56 70.28,72.27 "/>
   <polygon class="fil1 str2" points="38.62,60.38 38.51,53.09 "/>
   <polyline class="fil0 str0" points="61.77,60.27 38.62,60.38 38.51,53.09 "/>
   <polyline class="fil0 str0" points="44.67,53.68 44.7,60.35 49.23,59.63 49.23,54.53 53.68,53.68 53.71,60.31 "/>
   <line class="fil0 str1" x1="35.83" y1="69.16" x2="66.9" y2= "68.82" />
   <polyline class="fil0 str1" points="53.51,85.88 53.33,68.97 58.87,68.91 59.51,85.88 65.19,85.88 64.12,68.85 48.48,69.03 47.83,85.88 42.14,85.77 43.33,69.08 "/>
   <line class="fil0 str2" x1="39.58" y1="60.37" x2="41.08" y2= "60.36" />
   <line class="fil0 str1" x1="35.73" y1="85.45" x2="32.03" y2= "85.29" />
   <polygon class="fil0 str1" points="31.22,94.13 74.2,94.24 76.66,93.49 77.41,91.13 77.41,88.34 76.77,86.42 74.73,85.24 72.37,85.56 33.88,85.37 32.03,85.29 29.81,86.95 29.81,90.59 "/>
   <polyline class="fil0 str2" points="33.05,100.35 33.9,94.14 41.08,94.16 41.83,94.16 "/>
   <polyline class="fil0 str0" points="41.08,100.56 41.08,94.16 47.49,94.17 47.62,100.02 53.3,99.7 52.71,94.18 59.62,94.2 59.84,99.92 66.37,99.7 65.73,94.22 74.2,94.24 73.98,99.7 33.13,99.78 33.9,94.14 "/>
   <ellipse class="fil1 str2" cx="34.95" cy="90.06" rx="1.18" ry="0.94"/>
   <ellipse class="fil1 str2" cx="44.59" cy="90.3" rx="1.18" ry="0.91"/>
   <ellipse class="fil1 str2" cx="53.75" cy="90.14" rx="0.96" ry="0.8"/>
   <ellipse class="fil1 str2" cx="63.1" cy="90.3" rx="0.99" ry="0.91"/>
   <ellipse class="fil1 str2" cx="72.48" cy="90.17" rx="1.04" ry="0.94"/>
   <polygon class="fil0 str3" points="78.4,89.55 80.22,89.44 80.22,91.69 78.35,91.75 "/>
   <ellipse class="fil1 str2" cx="39.05" cy="64.31" rx="1.15" ry="1.02"/>
   <ellipse class="fil1 str2" cx="48.8" cy="64.45" rx="1.26" ry="0.99"/>
   <ellipse class="fil1 str2" cx="58.44" cy="64.45" rx="1.1" ry="0.94"/>
   <polygon class="fil0 str0" points="81.72,65.17 94.9,80.07 80.01,71.92 80.76,69.14 "/>
   <polygon class="fil0 str0" points="32.43,66.89 28.14,69.57 25.89,67.96 25.36,66.78 24.39,65.06 25.14,63.89 28.68,60.24 30.39,58.85 32.32,59.6 33.61,60.46 32.32,61.74 32.32,63.89 "/>
   <polygon class="fil0 str0" points="17,71.6 10.78,79.42 20.11,74.39 "/>
  </g>
 </g>
</svg>
