<?xml version="1.0" encoding="UTF-8"?>
<!DOCTYPE svg PUBLIC "-//W3C//DTD SVG 1.1//EN" "http://www.w3.org/Graphics/SVG/1.1/DTD/svg11.dtd">
<!-- Creator: CorelDRAW 2017 -->
<svg xmlns="http://www.w3.org/2000/svg" xml:space="preserve" width="36.979mm" height="37.5758mm" version="1.1" style="shape-rendering:geometricPrecision; text-rendering:geometricPrecision; image-rendering:optimizeQuality; fill-rule:evenodd; clip-rule:evenodd"
viewBox="0 0 115.77 117.64"
 xmlns:xlink="http://www.w3.org/1999/xlink">
 <defs>
  <style type="text/css">
   <![CDATA[
    .fil0 {fill:#FEFEFE}
   ]]>
  </style>
 </defs>
 <g id="Слой_x0020_1">
  <metadata id="CorelCorpID_0Corel-Layer"/>
  <path class="fil0" d="M30.33 72.17c4.16,0.97 11.71,5.69 18.83,5.85 -0.64,2.73 -3.36,6.5 -6.49,6.5 -2.18,0 -5.83,-3.57 -7.43,-4.91 -1.78,-1.5 -1.4,-1.3 -2.84,-3 -1.58,-1.86 -1.69,-1.45 -2.07,-4.43zm44.16 12.34c-3.45,0 -5.14,-2.8 -5.84,-5.85l21.43 -5.85c-2.15,4.07 -9.66,11.69 -15.58,11.69zm-67.14 -0.91c-2.92,11.67 -3.14,10.08 -6.17,18.51 -1.27,3.51 -2.4,11.87 1.66,13.82 1.07,0.51 3.93,1.13 5.18,0.84 6.1,-1.43 -2.14,-5.08 11.29,-14.07 5.6,3.75 9.3,14.94 22.73,14.94 4.24,0 -0.6,-4.45 5.01,-9.28 7.19,-6.2 25.83,-5.69 26.16,9.28 7.04,0 8.94,-1.16 14.49,-5.64 5.86,-4.72 2.45,-3.91 9.53,-8.65 7.69,4.07 6.14,6.74 7.31,10.87 1.31,4.62 13.11,4.96 10.99,-7.06 -2.23,-12.59 -5.41,-17.22 -8.05,-28.36 -3.6,-15.21 -4.77,-56.79 -21.94,-65.1 -1.75,-1.17 -2.78,-2.54 -4.54,-3.9 -3.65,-2.83 -6.49,-5.26 -11.47,-6.72 -2.31,-0.68 -1.79,-0.1 -3.73,-1.46 -2.2,-1.85 -6.07,-1.56 -8.06,-1.62 -3.93,-0.12 -5.8,1.3 -10.03,2.5 -4.92,1.4 -10.13,3.37 -16.18,8.77 -30.29,35.93 -11.32,37.33 -24.18,72.33z"/>
 </g>
</svg>
